{
    "languages":[
        {
            "name": "Spanish",
            "json": "es.json"
        },
        {
            "name": "English",
            "json": "en.json"
        }
    ],
    "default_language": "Spanish",
    "default_connection":{
        "port": null,
        "baudrate": null
    }
}